-------------------------------------------------------------------------------
Test set: pl.ncdc.hot.CalcTest
-------------------------------------------------------------------------------
Tests run: 3, Failures: 0, Errors: 0, Skipped: 0, Time elapsed: 0.053 sec
